EDA
…
sum(duplicated(bank_reviews$review_id)) #The output shows that 429 reviews are duplicated, let's check them
#> [1] 429

# All the row's who values are duplicated
bank_reviews %>%
  filter(duplicated(review_id))
#> # A tibble: 429 x 16
#>     page review_id company review_title employee_role
#>    <dbl> <chr>     <chr>   <chr>        <chr>        
#>  1     6 empRevie~ J.P. M~ It's Okay    Former Emplo~
#>  2    13 empRevie~ J.P. M~ AB           Former Emplo~
#>  3    15 empRevie~ J.P. M~ Overall a g~ Current Empl~
#>  4    17 empRevie~ J.P. M~ Great cultu~ Current Empl~
#>  5    22 empRevie~ J.P. M~ Great Compa~ Former Emplo~
#>  6    24 empRevie~ J.P. M~ good or bad  Current Empl~
#>  7    27 empRevie~ J.P. M~ Good compan~ Current Empl~
#>  8    30 empRevie~ J.P. M~ general      Former Emplo~
#>  9    33 empRevie~ J.P. M~ Coast if yo~ Current Empl~
#> 10    39 empRevie~ J.P. M~ Lots of goo~ Former Emplo~
#> # ... with 419 more rows, and 11 more variables:
#> #   employee_history <chr>, employer_pros <chr>,
#> #   employer_cons <chr>, employer_rating <dbl>,
#> #   work_life_balance <dbl>, culture_values <dbl>,
#> #   diversity_inclusion <dbl>, career_opportunities <dbl>,
#> #   compensation_and_benefits <dbl>, senior_management <dbl>,
#> #   review_time <dttm>

# These are all the duplicated values
bank_reviews %>% group_by(review_id) %>% filter(n()>1) %>% ungroup()
#> # A tibble: 858 x 16
#>     page review_id company review_title employee_role
#>    <dbl> <chr>     <chr>   <chr>        <chr>        
#>  1     5 empRevie~ J.P. M~ It's Okay    Former Emplo~
#>  2     6 empRevie~ J.P. M~ It's Okay    Former Emplo~
#>  3    12 empRevie~ J.P. M~ AB           Former Emplo~
#>  4    13 empRevie~ J.P. M~ AB           Former Emplo~
#>  5    14 empRevie~ J.P. M~ Overall a g~ Current Empl~
#>  6    15 empRevie~ J.P. M~ Overall a g~ Current Empl~
#>  7    16 empRevie~ J.P. M~ Great cultu~ Current Empl~
#>  8    17 empRevie~ J.P. M~ Great cultu~ Current Empl~
#>  9    21 empRevie~ J.P. M~ Great Compa~ Former Emplo~
#> 10    22 empRevie~ J.P. M~ Great Compa~ Former Emplo~
#> # ... with 848 more rows, and 11 more variables:
#> #   employee_history <chr>, employer_pros <chr>,
#> #   employer_cons <chr>, employer_rating <dbl>,
#> #   work_life_balance <dbl>, culture_values <dbl>,
#> #   diversity_inclusion <dbl>, career_opportunities <dbl>,
#> #   compensation_and_benefits <dbl>, senior_management <dbl>,
#> #   review_time <dttm>
…
    # changing the name of the object based on the option given
    names(output)[1] <-
      `if`(lemma,"Remove_stopwords_make_lemma","Remove_stopwords")

    return(output)
  }

EDA_handler(bank_reviews, employer_pros, n_top = 1, word_cloud = T, aggregate_cloud = TRUE, lemma=TRUE)
#> $Remove_stopwords_make_lemma
#> # A tibble: 148,085 x 16
#>     page review_id company review_title employee_role
#>    <dbl> <chr>     <chr>   <chr>        <chr>        
#>  1     1 empRevie~ J.P. M~ Cool place   Current Empl~
#>  2     1 empRevie~ J.P. M~ Fun          Former Emplo~
#>  3     1 empRevie~ J.P. M~ Fun          Former Emplo~
#>  4     1 empRevie~ J.P. M~ Great workp~ Former Emplo~
#>  5     1 empRevie~ J.P. M~ Great workp~ Former Emplo~
#>  6     1 empRevie~ J.P. M~ Great workp~ Former Emplo~
#>  7     1 empRevie~ J.P. M~ Great workp~ Former Emplo~
#>  8     1 empRevie~ J.P. M~ Great bank   Current Empl~
#>  9     1 empRevie~ J.P. M~ Great bank   Current Empl~
#> 10     1 empRevie~ J.P. M~ Great bank   Current Empl~
#> # ... with 148,075 more rows, and 11 more variables:
#> #   employee_history <chr>, employer_cons <chr>,
#> #   employer_rating <dbl>, work_life_balance <dbl>,
#> #   culture_values <dbl>, diversity_inclusion <dbl>,
#> #   career_opportunities <dbl>, compensation_and_benefits <dbl>,
#> #   senior_management <dbl>, review_time <dttm>,
#> #   employer_pros_word <chr>
#> 
#> $Most_frequent_words
#> # A tibble: 14,023 x 3
#>    company       employer_pros_word     n
#>    <chr>         <chr>              <int>
#>  1 J.P. Morgan   benefit             1348
#>  2 TD            benefit             1188
#>  3 UBS           people              1171
#>  4 Deutsche Bank people              1049
#>  5 HSBC Holdings benefit             1000
#>  6 TD            pay                  819
#>  7 J.P. Morgan   company              793
#>  8 Deutsche Bank life                 723
#>  9 Deutsche Bank balance              709
#> 10 HSBC Holdings balance              705
#> # ... with 14,013 more rows
…
Regarding the pros, most often the words benefit and people come up, it is also interesting to see that the words culture, and life are also there perhaps indicating that most people care about these values when trying to describe work positively.

We can see that the most cons were associated with the word management. This is followed by employees, hour and time. Furthermore we have the same people word in the cons meaning that we would have to put our analysis into context and use the valence sifters to see if they mention something good about people or bad about these people.

Also quanteda library could be used if needed..

pros_corpus <- bank_reviews %>% select(company, review_id, employer_pros) %>% corpus(text_field = "employer_pros")

Semantic Analysis

Sentiment analysis with the two dictionaries of nrc and afinn.

# Dictionaries for categories
get_sentiments("nrc")
#> # A tibble: 13,901 x 2
#>    word        sentiment
#>    <chr>       <chr>    
#>  1 abacus      trust    
#>  2 abandon     fear     
#>  3 abandon     negative 
#>  4 abandon     sadness  
#>  5 abandoned   anger    
#>  6 abandoned   fear     
#>  7 abandoned   negative 
#>  8 abandoned   sadness  
#>  9 abandonment anger    
#> 10 abandonment fear     
#> # ... with 13,891 more rows

# Dictionaries by values
get_sentiments("afinn")
#> # A tibble: 2,477 x 2
#>    word       value
#>    <chr>      <dbl>
#>  1 abandon       -2
#>  2 abandoned     -2
#>  3 abandons      -2
#>  4 abducted      -2
#>  5 abduction     -2
#>  6 abductions    -2
#>  7 abhor         -3
#>  8 abhorred      -3
#>  9 abhorrent     -3
#> 10 abhors        -3
#> # ... with 2,467 more rows
…
nrc_combined <- bind_rows(make_wider(pros_tf), make_wider(cons_tf))

# applying it to the combined set of reviews
dicti_senti(list(nrc_combined), a_dictionary = "nrc", a_plot=TRUE)
#> $nrc_sentiments
#> # A tibble: 283,349 x 19
#>     page review_id company review_title employee_role
#>    <dbl> <chr>     <chr>   <chr>        <chr>        
#>  1     1 empRevie~ J.P. M~ Cool place   Current Empl~
#>  2     1 empRevie~ J.P. M~ Fun          Former Emplo~
#>  3     1 empRevie~ J.P. M~ Great workp~ Former Emplo~
#>  4     1 empRevie~ J.P. M~ Great workp~ Former Emplo~
#>  5     1 empRevie~ J.P. M~ Great workp~ Former Emplo~
#>  6     1 empRevie~ J.P. M~ Great workp~ Former Emplo~
#>  7     1 empRevie~ J.P. M~ Great bank   Current Empl~
#>  8     1 empRevie~ J.P. M~ Great bank   Current Empl~
#>  9     1 empRevie~ J.P. M~ Great bank   Current Empl~
#> 10     1 empRevie~ J.P. M~ Great bank   Current Empl~
#> # ... with 283,339 more rows, and 14 more variables:
#> #   employee_history <chr>, employer_cons <chr>,
#> #   employer_rating <dbl>, work_life_balance <dbl>,
#> #   culture_values <dbl>, diversity_inclusion <dbl>,
#> #   career_opportunities <dbl>, compensation_and_benefits <dbl>,
#> #   senior_management <dbl>, review_time <dttm>,
#> #   type_of_review <chr>, word <chr>, employer_pros <chr>,
#> #   sentiment <chr>
…
